[
  {
    "guid": "sample-local-video-id",
    "title": "A-Live",
    "url": "https://usher.ttvnw.net/api/lvs/hls/lvs.lvs-client-example.c6341be8-a3c7-42bc-b89a-8dabe040eae9.m3u8",
    "runtime": 35,
    "playedSec": [],
    "workflowStatus": "Complete",
    "thumbNailsUrls": [
      "https://d1dopqicmcx111.cloudfront.net/12039a58-b5c9-416b-be60-c6a5a70ca903/thumbnails/REPCircle_Presentation_thumb.0000007.jpg"
    ],
    "egressEndpoints": {
      "CMAF": "https://d1dopqicmcx111.cloudfront.net/out/v1/42b3c53834ba47abaa110c424b163293/f6a738caadd041ee81b956d014cfa67c/27f9d779da5f4b85a5c0732cae6d2a54/index.m3u8",
      "MSS": "https://d1dopqicmcx111.cloudfront.net/out/v1/42b3c53834ba47abaa110c424b163293/961e172ab1f844209b1a9afd70be9bc1/78623a75eec14c74861a821dd3022395/index.ism/Manifest",
      "DASH": "https://d1dopqicmcx111.cloudfront.net/out/v1/42b3c53834ba47abaa110c424b163293/7c033e24f8c54d13833bd902b9d22c33/c916a709ea62459abe2b7b4fb25b9b86/index.mpd",
      "HLS": "https://d1dopqicmcx111.cloudfront.net/out/v1/42b3c53834ba47abaa110c424b163293/32a0e4f73a8b402f9e84d3350da33474/a3c862e9dd854f8ea6fb18b7959fe254/index.m3u8"
    },
    "srcVideo": "REPCircle_Presentation.mp4"
  },  {
    "guid": "12039a58-b5c9-416b-be60-c6a5a70ca903",
    "title": "A-Live",
    "url": "https://usher.ttvnw.net/api/lvs/hls/lvs.lvs-client-example.c6341be8-a3c7-42bc-b89a-8dabe040eae9.m3u8",
    "runtime": 35,
    "playedSec": [{ "sec": 2 }, { "sec": 5 }, { "sec": 30 }, { "sec": 33 }],
    "workflowStatus": "Complete",
    "thumbNailsUrls": [
      "https://d1dopqicmcx111.cloudfront.net/12039a58-b5c9-416b-be60-c6a5a70ca903/thumbnails/REPCircle_Presentation_thumb.0000007.jpg"
    ],
    "egressEndpoints": {
      "CMAF": "https://d1dopqicmcx111.cloudfront.net/out/v1/42b3c53834ba47abaa110c424b163293/f6a738caadd041ee81b956d014cfa67c/27f9d779da5f4b85a5c0732cae6d2a54/index.m3u8",
      "MSS": "https://d1dopqicmcx111.cloudfront.net/out/v1/42b3c53834ba47abaa110c424b163293/961e172ab1f844209b1a9afd70be9bc1/78623a75eec14c74861a821dd3022395/index.ism/Manifest",
      "DASH": "https://d1dopqicmcx111.cloudfront.net/out/v1/42b3c53834ba47abaa110c424b163293/7c033e24f8c54d13833bd902b9d22c33/c916a709ea62459abe2b7b4fb25b9b86/index.mpd",
      "HLS": "https://d1dopqicmcx111.cloudfront.net/out/v1/42b3c53834ba47abaa110c424b163293/32a0e4f73a8b402f9e84d3350da33474/a3c862e9dd854f8ea6fb18b7959fe254/index.m3u8"
    },
    "srcVideo": "REPCircle_Presentation.mp4"
  },
  {
    "guid": "314fffb1-1687-42d7-9bc6-4b4bc8ec70e8",
    "title": "B-Live",
    "runtime": 55,
    "playedSec": [{ "sec": 3 }, { "sec": 12 }, { "sec": 50 }],
    "workflowStatus": "Complete",
    "thumbNailsUrls": [
      "https://d1dopqicmcx111.cloudfront.net/12039a58-b5c9-416b-be60-c6a5a70ca903/thumbnails/REPCircle_Presentation_thumb.0000007.jpg"
    ],
    "egressEndpoints": {
      "CMAF": "https://d1dopqicmcx111.cloudfront.net/out/v1/42b3c53834ba47abaa110c424b163293/f6a738caadd041ee81b956d014cfa67c/27f9d779da5f4b85a5c0732cae6d2a54/index.m3u8",
      "MSS": "https://d1dopqicmcx111.cloudfront.net/out/v1/42b3c53834ba47abaa110c424b163293/961e172ab1f844209b1a9afd70be9bc1/78623a75eec14c74861a821dd3022395/index.ism/Manifest",
      "DASH": "https://d1dopqicmcx111.cloudfront.net/out/v1/42b3c53834ba47abaa110c424b163293/7c033e24f8c54d13833bd902b9d22c33/c916a709ea62459abe2b7b4fb25b9b86/index.mpd",
      "HLS": "https://d1dopqicmcx111.cloudfront.net/out/v1/42b3c53834ba47abaa110c424b163293/32a0e4f73a8b402f9e84d3350da33474/a3c862e9dd854f8ea6fb18b7959fe254/index.m3u8"
    },
    "srcVideo": "REPCircle_Presentation.mp4"
  },
  {
    "guid": "314fffb1-1687-42d7-9bc6-4b4bc8ec3328",
    "title": "C-VOD",
    "runtime": 120,
    "playedSec": [{ "sec": 10 }, { "sec": 50 }, { "sec": 110 }],
    "workflowStatus": "Complete",
    "thumbNailsUrls": [
      "https://d1dopqicmcx111.cloudfront.net/12039a58-b5c9-416b-be60-c6a5a70ca903/thumbnails/REPCircle_Presentation_thumb.0000007.jpg"
    ],
    "egressEndpoints": {
      "CMAF": "https://d1dopqicmcx111.cloudfront.net/out/v1/42b3c53834ba47abaa110c424b163293/f6a738caadd041ee81b956d014cfa67c/27f9d779da5f4b85a5c0732cae6d2a54/index.m3u8",
      "MSS": "https://d1dopqicmcx111.cloudfront.net/out/v1/42b3c53834ba47abaa110c424b163293/961e172ab1f844209b1a9afd70be9bc1/78623a75eec14c74861a821dd3022395/index.ism/Manifest",
      "DASH": "https://d1dopqicmcx111.cloudfront.net/out/v1/42b3c53834ba47abaa110c424b163293/7c033e24f8c54d13833bd902b9d22c33/c916a709ea62459abe2b7b4fb25b9b86/index.mpd",
      "HLS": "https://d1dopqicmcx111.cloudfront.net/out/v1/42b3c53834ba47abaa110c424b163293/32a0e4f73a8b402f9e84d3350da33474/a3c862e9dd854f8ea6fb18b7959fe254/index.m3u8"
    },
    "srcVideo": "REPCircle_Presentation.mp4"
  },
  {
    "guid": "12039a58-b5c9-416b-be60-c6a4a72ca903",
    "title": "Youtube",
    "runtime": 60,
    "playedSec": [{ "sec": 25 }, { "sec": 45 }, { "sec": 55 }],
    "workflowStatus": "Complete",
    "thumbNailsUrls": [
      "https://d1dopqicmcx111.cloudfront.net/12039a58-b5c9-416b-be60-c6a5a70ca903/thumbnails/REPCircle_Presentation_thumb.0000007.jpg"
    ],
    "egressEndpoints": {
      "CMAF": "https://d1dopqicmcx111.cloudfront.net/out/v1/42b3c53834ba47abaa110c424b163293/f6a738caadd041ee81b956d014cfa67c/27f9d779da5f4b85a5c0732cae6d2a54/index.m3u8",
      "MSS": "https://d1dopqicmcx111.cloudfront.net/out/v1/42b3c53834ba47abaa110c424b163293/961e172ab1f844209b1a9afd70be9bc1/78623a75eec14c74861a821dd3022395/index.ism/Manifest",
      "DASH": "https://d1dopqicmcx111.cloudfront.net/out/v1/42b3c53834ba47abaa110c424b163293/7c033e24f8c54d13833bd902b9d22c33/c916a709ea62459abe2b7b4fb25b9b86/index.mpd",
      "HLS": "https://d1dopqicmcx111.cloudfront.net/out/v1/42b3c53834ba47abaa110c424b163293/32a0e4f73a8b402f9e84d3350da33474/a3c862e9dd854f8ea6fb18b7959fe254/index.m3u8"
    },
    "srcVideo": "REPCircle_Presentation.mp4"
  },
  {
    "guid": "15049a28-b5c9-416b-be60-c6a5a70ca903",
    "title": "Vimeo",
    "runtime": 90,
    "playedSec": [{ "sec": 30 }, { "sec": 45 }, { "sec": 80 }],
    "workflowStatus": "Complete",
    "thumbNailsUrls": [
      "https://d1dopqicmcx111.cloudfront.net/12039a58-b5c9-416b-be60-c6a5a70ca903/thumbnails/REPCircle_Presentation_thumb.0000007.jpg"
    ],
    "egressEndpoints": {
      "CMAF": "https://d1dopqicmcx111.cloudfront.net/out/v1/42b3c53834ba47abaa110c424b163293/f6a738caadd041ee81b956d014cfa67c/27f9d779da5f4b85a5c0732cae6d2a54/index.m3u8",
      "MSS": "https://d1dopqicmcx111.cloudfront.net/out/v1/42b3c53834ba47abaa110c424b163293/961e172ab1f844209b1a9afd70be9bc1/78623a75eec14c74861a821dd3022395/index.ism/Manifest",
      "DASH": "https://d1dopqicmcx111.cloudfront.net/out/v1/42b3c53834ba47abaa110c424b163293/7c033e24f8c54d13833bd902b9d22c33/c916a709ea62459abe2b7b4fb25b9b86/index.mpd",
      "HLS": "https://d1dopqicmcx111.cloudfront.net/out/v1/42b3c53834ba47abaa110c424b163293/32a0e4f73a8b402f9e84d3350da33474/a3c862e9dd854f8ea6fb18b7959fe254/index.m3u8"
    },
    "srcVideo": "REPCircle_Presentation.mp4"
  }
]
